-------------------------------------------------------------------------------
Test set: UserTest
-------------------------------------------------------------------------------
Tests run: 59, Failures: 0, Errors: 0, Skipped: 0, Time elapsed: 0.212 sec - in UserTest
